PWD /home/ziska/Projects/Uni/disaster-tweets/Berichte/Praesentation
INPUT /etc/texmf/web2c/texmf.cnf
INPUT /usr/share/texmf/web2c/texmf.cnf
INPUT /usr/share/texlive/texmf-dist/web2c/texmf.cnf
INPUT /var/lib/texmf/web2c/pdftex/pdflatex.fmt
INPUT /home/ziska/Projects/Uni/disaster-tweets/Berichte/Praesentation/slides.tex
OUTPUT /home/ziska/Projects/Uni/disaster-tweets/Berichte/Praesentation/slides.log
INPUT /usr/share/texlive/texmf-dist/tex/latex/beamer/beamer.cls
INPUT /usr/share/texlive/texmf-dist/tex/latex/beamer/beamer.cls
INPUT /usr/share/texlive/texmf-dist/tex/latex/beamer/beamerbasemodes.sty
INPUT /usr/share/texlive/texmf-dist/tex/latex/beamer/beamerbasemodes.sty
INPUT /usr/share/texlive/texmf-dist/tex/latex/etoolbox/etoolbox.sty
INPUT /usr/share/texlive/texmf-dist/tex/latex/etoolbox/etoolbox.sty
INPUT /usr/share/texlive/texmf-dist/tex/latex/beamer/beamerbasedecode.sty
INPUT /usr/share/texlive/texmf-dist/tex/latex/beamer/beamerbasedecode.sty
INPUT /usr/share/texlive/texmf-dist/tex/generic/iftex/ifpdf.sty
INPUT /usr/share/texlive/texmf-dist/tex/generic/iftex/ifpdf.sty
INPUT /usr/share/texlive/texmf-dist/tex/generic/iftex/iftex.sty
INPUT /usr/share/texlive/texmf-dist/tex/generic/iftex/iftex.sty
INPUT /usr/share/texlive/texmf-dist/tex/latex/beamer/beamerbaseoptions.sty
INPUT /usr/share/texlive/texmf-dist/tex/latex/beamer/beamerbaseoptions.sty
INPUT /usr/share/texlive/texmf-dist/tex/latex/graphics/keyval.sty
INPUT /usr/share/texlive/texmf-dist/tex/latex/graphics/keyval.sty
INPUT /usr/share/texlive/texmf-dist/tex/latex/geometry/geometry.sty
INPUT /usr/share/texlive/texmf-dist/tex/latex/geometry/geometry.sty
INPUT /usr/share/texlive/texmf-dist/tex/generic/iftex/ifvtex.sty
INPUT /usr/share/texlive/texmf-dist/tex/generic/iftex/ifvtex.sty
INPUT /usr/share/texlive/texmf-dist/tex/latex/base/size12.clo
INPUT /usr/share/texlive/texmf-dist/tex/latex/base/size12.clo
INPUT /usr/share/texlive/texmf-dist/fonts/map/fontname/texfonts.map
INPUT /usr/share/texlive/texmf-dist/fonts/tfm/public/cm/cmr12.tfm
INPUT /usr/share/texlive/texmf-dist/tex/latex/pgf/basiclayer/pgfcore.sty
INPUT /usr/share/texlive/texmf-dist/tex/latex/pgf/basiclayer/pgfcore.sty
INPUT /usr/share/texlive/texmf-dist/tex/latex/graphics/graphicx.sty
INPUT /usr/share/texlive/texmf-dist/tex/latex/graphics/graphicx.sty
INPUT /usr/share/texlive/texmf-dist/tex/latex/graphics/graphics.sty
INPUT /usr/share/texlive/texmf-dist/tex/latex/graphics/graphics.sty
INPUT /usr/share/texlive/texmf-dist/tex/latex/graphics/trig.sty
INPUT /usr/share/texlive/texmf-dist/tex/latex/graphics/trig.sty
INPUT /usr/share/texlive/texmf-dist/tex/latex/graphics-cfg/graphics.cfg
INPUT /usr/share/texlive/texmf-dist/tex/latex/graphics-cfg/graphics.cfg
INPUT /usr/share/texlive/texmf-dist/tex/latex/graphics-def/pdftex.def
INPUT /usr/share/texlive/texmf-dist/tex/latex/graphics-def/pdftex.def
INPUT /usr/share/texlive/texmf-dist/tex/latex/pgf/systemlayer/pgfsys.sty
INPUT /usr/share/texlive/texmf-dist/tex/latex/pgf/systemlayer/pgfsys.sty
INPUT /usr/share/texlive/texmf-dist/tex/latex/pgf/utilities/pgfrcs.sty
INPUT /usr/share/texlive/texmf-dist/tex/latex/pgf/utilities/pgfrcs.sty
INPUT /usr/share/texlive/texmf-dist/tex/generic/pgf/utilities/pgfutil-common.tex
INPUT /usr/share/texlive/texmf-dist/tex/generic/pgf/utilities/pgfutil-common-lists.tex
INPUT /usr/share/texlive/texmf-dist/tex/generic/pgf/utilities/pgfutil-latex.def
INPUT /usr/share/texlive/texmf-dist/tex/latex/ms/everyshi.sty
INPUT /usr/share/texlive/texmf-dist/tex/latex/ms/everyshi.sty
INPUT /usr/share/texlive/texmf-dist/tex/generic/pgf/utilities/pgfrcs.code.tex
INPUT /usr/share/texlive/texmf-dist/tex/generic/pgf/utilities/pgfrcs.code.tex
INPUT /usr/share/texlive/texmf-dist/tex/generic/pgf/pgf.revision.tex
INPUT /usr/share/texlive/texmf-dist/tex/generic/pgf/pgf.revision.tex
INPUT /usr/share/texlive/texmf-dist/tex/generic/pgf/systemlayer/pgfsys.code.tex
INPUT /usr/share/texlive/texmf-dist/tex/generic/pgf/systemlayer/pgfsys.code.tex
INPUT /usr/share/texlive/texmf-dist/tex/generic/pgf/utilities/pgfkeys.code.tex
INPUT /usr/share/texlive/texmf-dist/tex/generic/pgf/utilities/pgfkeysfiltered.code.tex
INPUT /usr/share/texlive/texmf-dist/tex/generic/pgf/systemlayer/pgf.cfg
INPUT /usr/share/texlive/texmf-dist/tex/generic/pgf/systemlayer/pgfsys-pdftex.def
INPUT /usr/share/texlive/texmf-dist/tex/generic/pgf/systemlayer/pgfsys-pdftex.def
INPUT /usr/share/texlive/texmf-dist/tex/generic/pgf/systemlayer/pgfsys-common-pdf.def
INPUT /usr/share/texlive/texmf-dist/tex/generic/pgf/systemlayer/pgfsyssoftpath.code.tex
INPUT /usr/share/texlive/texmf-dist/tex/generic/pgf/systemlayer/pgfsyssoftpath.code.tex
INPUT /usr/share/texlive/texmf-dist/tex/generic/pgf/systemlayer/pgfsysprotocol.code.tex
INPUT /usr/share/texlive/texmf-dist/tex/generic/pgf/systemlayer/pgfsysprotocol.code.tex
INPUT /usr/share/texlive/texmf-dist/tex/latex/xcolor/xcolor.sty
INPUT /usr/share/texlive/texmf-dist/tex/latex/xcolor/xcolor.sty
INPUT /usr/share/texlive/texmf-dist/tex/latex/graphics-cfg/color.cfg
INPUT /usr/share/texlive/texmf-dist/tex/latex/graphics-cfg/color.cfg
INPUT /usr/share/texlive/texmf-dist/tex/generic/pgf/basiclayer/pgfcore.code.tex
INPUT /usr/share/texlive/texmf-dist/tex/generic/pgf/basiclayer/pgfcore.code.tex
INPUT /usr/share/texlive/texmf-dist/tex/generic/pgf/math/pgfmath.code.tex
INPUT /usr/share/texlive/texmf-dist/tex/generic/pgf/math/pgfmathcalc.code.tex
INPUT /usr/share/texlive/texmf-dist/tex/generic/pgf/math/pgfmathutil.code.tex
INPUT /usr/share/texlive/texmf-dist/tex/generic/pgf/math/pgfmathparser.code.tex
INPUT /usr/share/texlive/texmf-dist/tex/generic/pgf/math/pgfmathfunctions.code.tex
INPUT /usr/share/texlive/texmf-dist/tex/generic/pgf/math/pgfmathfunctions.basic.code.tex
INPUT /usr/share/texlive/texmf-dist/tex/generic/pgf/math/pgfmathfunctions.trigonometric.code.tex
INPUT /usr/share/texlive/texmf-dist/tex/generic/pgf/math/pgfmathfunctions.random.code.tex
INPUT /usr/share/texlive/texmf-dist/tex/generic/pgf/math/pgfmathfunctions.comparison.code.tex
INPUT /usr/share/texlive/texmf-dist/tex/generic/pgf/math/pgfmathfunctions.base.code.tex
INPUT /usr/share/texlive/texmf-dist/tex/generic/pgf/math/pgfmathfunctions.round.code.tex
INPUT /usr/share/texlive/texmf-dist/tex/generic/pgf/math/pgfmathfunctions.misc.code.tex
INPUT /usr/share/texlive/texmf-dist/tex/generic/pgf/math/pgfmathfunctions.integerarithmetics.code.tex
INPUT /usr/share/texlive/texmf-dist/tex/generic/pgf/math/pgfmathfloat.code.tex
INPUT /usr/share/texlive/texmf-dist/tex/generic/pgf/math/pgfint.code.tex
INPUT /usr/share/texlive/texmf-dist/tex/generic/pgf/basiclayer/pgfcorepoints.code.tex
INPUT /usr/share/texlive/texmf-dist/tex/generic/pgf/basiclayer/pgfcorepathconstruct.code.tex
INPUT /usr/share/texlive/texmf-dist/tex/generic/pgf/basiclayer/pgfcorepathusage.code.tex
INPUT /usr/share/texlive/texmf-dist/tex/generic/pgf/basiclayer/pgfcorescopes.code.tex
INPUT /usr/share/texlive/texmf-dist/tex/generic/pgf/basiclayer/pgfcoregraphicstate.code.tex
INPUT /usr/share/texlive/texmf-dist/tex/generic/pgf/basiclayer/pgfcoretransformations.code.tex
INPUT /usr/share/texlive/texmf-dist/tex/generic/pgf/basiclayer/pgfcorequick.code.tex
INPUT /usr/share/texlive/texmf-dist/tex/generic/pgf/basiclayer/pgfcoreobjects.code.tex
INPUT /usr/share/texlive/texmf-dist/tex/generic/pgf/basiclayer/pgfcorepathprocessing.code.tex
INPUT /usr/share/texlive/texmf-dist/tex/generic/pgf/basiclayer/pgfcorearrows.code.tex
INPUT /usr/share/texlive/texmf-dist/tex/generic/pgf/basiclayer/pgfcoreshade.code.tex
INPUT /usr/share/texlive/texmf-dist/tex/generic/pgf/basiclayer/pgfcoreimage.code.tex
INPUT /usr/share/texlive/texmf-dist/tex/generic/pgf/basiclayer/pgfcoreexternal.code.tex
INPUT /usr/share/texlive/texmf-dist/tex/generic/pgf/basiclayer/pgfcorelayers.code.tex
INPUT /usr/share/texlive/texmf-dist/tex/generic/pgf/basiclayer/pgfcoretransparency.code.tex
INPUT /usr/share/texlive/texmf-dist/tex/generic/pgf/basiclayer/pgfcorepatterns.code.tex
INPUT /usr/share/texlive/texmf-dist/tex/generic/pgf/basiclayer/pgfcorerdf.code.tex
INPUT /usr/share/texlive/texmf-dist/tex/latex/pgf/utilities/xxcolor.sty
INPUT /usr/share/texlive/texmf-dist/tex/latex/pgf/utilities/xxcolor.sty
INPUT /usr/share/texlive/texmf-dist/tex/generic/atbegshi/atbegshi.sty
INPUT /usr/share/texlive/texmf-dist/tex/generic/atbegshi/atbegshi.sty
INPUT /usr/share/texlive/texmf-dist/tex/generic/infwarerr/infwarerr.sty
INPUT /usr/share/texlive/texmf-dist/tex/generic/infwarerr/infwarerr.sty
INPUT /usr/share/texlive/texmf-dist/tex/generic/ltxcmds/ltxcmds.sty
INPUT /usr/share/texlive/texmf-dist/tex/generic/ltxcmds/ltxcmds.sty
INPUT /usr/share/texlive/texmf-dist/tex/latex/hyperref/hyperref.sty
INPUT /usr/share/texlive/texmf-dist/tex/latex/hyperref/hyperref.sty
INPUT /usr/share/texlive/texmf-dist/tex/generic/pdftexcmds/pdftexcmds.sty
INPUT /usr/share/texlive/texmf-dist/tex/generic/pdftexcmds/pdftexcmds.sty
INPUT /usr/share/texlive/texmf-dist/tex/generic/kvsetkeys/kvsetkeys.sty
INPUT /usr/share/texlive/texmf-dist/tex/generic/kvsetkeys/kvsetkeys.sty
INPUT /usr/share/texlive/texmf-dist/tex/generic/kvdefinekeys/kvdefinekeys.sty
INPUT /usr/share/texlive/texmf-dist/tex/generic/kvdefinekeys/kvdefinekeys.sty
INPUT /usr/share/texlive/texmf-dist/tex/generic/pdfescape/pdfescape.sty
INPUT /usr/share/texlive/texmf-dist/tex/generic/pdfescape/pdfescape.sty
INPUT /usr/share/texlive/texmf-dist/tex/latex/hycolor/hycolor.sty
INPUT /usr/share/texlive/texmf-dist/tex/latex/hycolor/hycolor.sty
INPUT /usr/share/texlive/texmf-dist/tex/latex/letltxmacro/letltxmacro.sty
INPUT /usr/share/texlive/texmf-dist/tex/latex/letltxmacro/letltxmacro.sty
INPUT /usr/share/texlive/texmf-dist/tex/latex/auxhook/auxhook.sty
INPUT /usr/share/texlive/texmf-dist/tex/latex/auxhook/auxhook.sty
INPUT /usr/share/texlive/texmf-dist/tex/latex/kvoptions/kvoptions.sty
INPUT /usr/share/texlive/texmf-dist/tex/latex/kvoptions/kvoptions.sty
INPUT /usr/share/texlive/texmf-dist/tex/latex/hyperref/pd1enc.def
INPUT /usr/share/texlive/texmf-dist/tex/latex/hyperref/pd1enc.def
INPUT /usr/share/texlive/texmf-dist/tex/generic/intcalc/intcalc.sty
INPUT /usr/share/texlive/texmf-dist/tex/generic/intcalc/intcalc.sty
INPUT /usr/share/texlive/texmf-dist/tex/generic/etexcmds/etexcmds.sty
INPUT /usr/share/texlive/texmf-dist/tex/generic/etexcmds/etexcmds.sty
INPUT /usr/share/texlive/texmf-dist/tex/latex/url/url.sty
INPUT /usr/share/texlive/texmf-dist/tex/latex/url/url.sty
INPUT /usr/share/texlive/texmf-dist/tex/generic/bitset/bitset.sty
INPUT /usr/share/texlive/texmf-dist/tex/generic/bitset/bitset.sty
INPUT /usr/share/texlive/texmf-dist/tex/generic/bigintcalc/bigintcalc.sty
INPUT /usr/share/texlive/texmf-dist/tex/generic/bigintcalc/bigintcalc.sty
INPUT /usr/share/texlive/texmf-dist/tex/latex/hyperref/hpdftex.def
INPUT /usr/share/texlive/texmf-dist/tex/latex/hyperref/hpdftex.def
INPUT /usr/share/texlive/texmf-dist/tex/latex/atveryend/atveryend.sty
INPUT /usr/share/texlive/texmf-dist/tex/latex/atveryend/atveryend.sty
INPUT /usr/share/texlive/texmf-dist/tex/latex/rerunfilecheck/rerunfilecheck.sty
INPUT /usr/share/texlive/texmf-dist/tex/latex/rerunfilecheck/rerunfilecheck.sty
INPUT /usr/share/texlive/texmf-dist/tex/generic/uniquecounter/uniquecounter.sty
INPUT /usr/share/texlive/texmf-dist/tex/generic/uniquecounter/uniquecounter.sty
INPUT /usr/share/texlive/texmf-dist/tex/latex/beamer/beamerbaserequires.sty
INPUT /usr/share/texlive/texmf-dist/tex/latex/beamer/beamerbaserequires.sty
INPUT /usr/share/texlive/texmf-dist/tex/latex/beamer/beamerbasecompatibility.sty
INPUT /usr/share/texlive/texmf-dist/tex/latex/beamer/beamerbasecompatibility.sty
INPUT /usr/share/texlive/texmf-dist/tex/latex/beamer/beamerbasefont.sty
INPUT /usr/share/texlive/texmf-dist/tex/latex/beamer/beamerbasefont.sty
INPUT /usr/share/texlive/texmf-dist/tex/latex/amsfonts/amssymb.sty
INPUT /usr/share/texlive/texmf-dist/tex/latex/amsfonts/amssymb.sty
INPUT /usr/share/texlive/texmf-dist/tex/latex/amsfonts/amsfonts.sty
INPUT /usr/share/texlive/texmf-dist/tex/latex/amsfonts/amsfonts.sty
INPUT /usr/share/texlive/texmf-dist/tex/latex/sansmathaccent/sansmathaccent.sty
INPUT /usr/share/texlive/texmf-dist/tex/latex/sansmathaccent/sansmathaccent.sty
INPUT /usr/share/texlive/texmf-dist/tex/latex/sansmathaccent/sansmathaccent.sty
INPUT /usr/share/texlive/texmf-dist/tex/latex/koma-script/scrlfile.sty
INPUT /usr/share/texlive/texmf-dist/tex/latex/koma-script/scrlfile.sty
INPUT /usr/share/texlive/texmf-dist/tex/latex/koma-script/scrlfile.sty
INPUT /usr/share/texlive/texmf-dist/tex/latex/beamer/beamerbasetranslator.sty
INPUT /usr/share/texlive/texmf-dist/tex/latex/beamer/beamerbasetranslator.sty
INPUT /usr/share/texlive/texmf-dist/tex/latex/translator/translator.sty
INPUT /usr/share/texlive/texmf-dist/tex/latex/translator/translator.sty
INPUT /usr/share/texlive/texmf-dist/tex/latex/beamer/beamerbasemisc.sty
INPUT /usr/share/texlive/texmf-dist/tex/latex/beamer/beamerbasemisc.sty
INPUT /usr/share/texlive/texmf-dist/tex/latex/beamer/beamerbasetwoscreens.sty
INPUT /usr/share/texlive/texmf-dist/tex/latex/beamer/beamerbasetwoscreens.sty
INPUT /usr/share/texlive/texmf-dist/tex/latex/beamer/beamerbaseoverlay.sty
INPUT /usr/share/texlive/texmf-dist/tex/latex/beamer/beamerbaseoverlay.sty
INPUT /usr/share/texlive/texmf-dist/tex/latex/beamer/beamerbasetitle.sty
INPUT /usr/share/texlive/texmf-dist/tex/latex/beamer/beamerbasetitle.sty
INPUT /usr/share/texlive/texmf-dist/tex/latex/beamer/beamerbasesection.sty
INPUT /usr/share/texlive/texmf-dist/tex/latex/beamer/beamerbasesection.sty
INPUT /usr/share/texlive/texmf-dist/tex/latex/beamer/beamerbaseframe.sty
INPUT /usr/share/texlive/texmf-dist/tex/latex/beamer/beamerbaseframe.sty
INPUT /usr/share/texlive/texmf-dist/tex/latex/beamer/beamerbaseverbatim.sty
INPUT /usr/share/texlive/texmf-dist/tex/latex/beamer/beamerbaseverbatim.sty
INPUT /usr/share/texlive/texmf-dist/tex/latex/beamer/beamerbaseframesize.sty
INPUT /usr/share/texlive/texmf-dist/tex/latex/beamer/beamerbaseframesize.sty
INPUT /usr/share/texlive/texmf-dist/tex/latex/beamer/beamerbaseframecomponents.sty
INPUT /usr/share/texlive/texmf-dist/tex/latex/beamer/beamerbaseframecomponents.sty
INPUT /usr/share/texlive/texmf-dist/tex/latex/beamer/beamerbasecolor.sty
INPUT /usr/share/texlive/texmf-dist/tex/latex/beamer/beamerbasecolor.sty
INPUT /usr/share/texlive/texmf-dist/tex/latex/beamer/beamerbasenotes.sty
INPUT /usr/share/texlive/texmf-dist/tex/latex/beamer/beamerbasenotes.sty
INPUT /usr/share/texlive/texmf-dist/tex/latex/beamer/beamerbasetoc.sty
INPUT /usr/share/texlive/texmf-dist/tex/latex/beamer/beamerbasetoc.sty
INPUT /usr/share/texlive/texmf-dist/tex/latex/beamer/beamerbasetemplates.sty
INPUT /usr/share/texlive/texmf-dist/tex/latex/beamer/beamerbasetemplates.sty
INPUT /usr/share/texlive/texmf-dist/tex/latex/beamer/beamerbaseauxtemplates.sty
INPUT /usr/share/texlive/texmf-dist/tex/latex/beamer/beamerbaseauxtemplates.sty
INPUT /usr/share/texlive/texmf-dist/tex/latex/beamer/beamerbaseboxes.sty
INPUT /usr/share/texlive/texmf-dist/tex/latex/beamer/beamerbaseboxes.sty
INPUT /usr/share/texlive/texmf-dist/tex/latex/beamer/beamerbaselocalstructure.sty
INPUT /usr/share/texlive/texmf-dist/tex/latex/beamer/beamerbaselocalstructure.sty
INPUT /usr/share/texlive/texmf-dist/tex/latex/tools/enumerate.sty
INPUT /usr/share/texlive/texmf-dist/tex/latex/tools/enumerate.sty
INPUT /usr/share/texlive/texmf-dist/tex/latex/beamer/beamerbasenavigation.sty
INPUT /usr/share/texlive/texmf-dist/tex/latex/beamer/beamerbasenavigation.sty
INPUT /usr/share/texlive/texmf-dist/tex/latex/beamer/beamerbasetheorems.sty
INPUT /usr/share/texlive/texmf-dist/tex/latex/beamer/beamerbasetheorems.sty
INPUT /usr/share/texlive/texmf-dist/tex/latex/amsmath/amsmath.sty
INPUT /usr/share/texlive/texmf-dist/tex/latex/amsmath/amsmath.sty
INPUT /usr/share/texlive/texmf-dist/tex/latex/amsmath/amstext.sty
INPUT /usr/share/texlive/texmf-dist/tex/latex/amsmath/amstext.sty
INPUT /usr/share/texlive/texmf-dist/tex/latex/amsmath/amsgen.sty
INPUT /usr/share/texlive/texmf-dist/tex/latex/amsmath/amsgen.sty
INPUT /usr/share/texlive/texmf-dist/tex/latex/amsmath/amsbsy.sty
INPUT /usr/share/texlive/texmf-dist/tex/latex/amsmath/amsbsy.sty
INPUT /usr/share/texlive/texmf-dist/tex/latex/amsmath/amsopn.sty
INPUT /usr/share/texlive/texmf-dist/tex/latex/amsmath/amsopn.sty
INPUT /usr/share/texlive/texmf-dist/tex/latex/amscls/amsthm.sty
INPUT /usr/share/texlive/texmf-dist/tex/latex/amscls/amsthm.sty
INPUT /usr/share/texlive/texmf-dist/tex/latex/beamer/beamerbasethemes.sty
INPUT /usr/share/texlive/texmf-dist/tex/latex/beamer/beamerbasethemes.sty
INPUT /usr/share/texlive/texmf-dist/fonts/tfm/public/cm/cmss12.tfm
INPUT /usr/share/texlive/texmf-dist/tex/latex/beamer/beamerthemedefault.sty
INPUT /usr/share/texlive/texmf-dist/tex/latex/beamer/beamerthemedefault.sty
INPUT /usr/share/texlive/texmf-dist/tex/latex/beamer/beamerfontthemedefault.sty
INPUT /usr/share/texlive/texmf-dist/tex/latex/beamer/beamerfontthemedefault.sty
INPUT /usr/share/texlive/texmf-dist/tex/latex/beamer/beamercolorthemedefault.sty
INPUT /usr/share/texlive/texmf-dist/tex/latex/beamer/beamercolorthemedefault.sty
INPUT /usr/share/texlive/texmf-dist/tex/latex/beamer/beamerinnerthemedefault.sty
INPUT /usr/share/texlive/texmf-dist/tex/latex/beamer/beamerinnerthemedefault.sty
INPUT /usr/share/texlive/texmf-dist/tex/latex/beamer/beamericonbook.pdf
OUTPUT /home/ziska/Projects/Uni/disaster-tweets/Berichte/Praesentation/slides.pdf
INPUT /usr/share/texlive/texmf-dist/tex/latex/beamer/beamericonbook.pdf
INPUT /usr/share/texlive/texmf-dist/tex/latex/beamer/beamericonbook.20.pdf
INPUT /usr/share/texlive/texmf-dist/tex/latex/beamer/beamericonbook.20.pdf
INPUT /usr/share/texlive/texmf-dist/tex/latex/beamer/beamericonarticle.pdf
INPUT /usr/share/texlive/texmf-dist/tex/latex/beamer/beamericonarticle.pdf
INPUT /usr/share/texlive/texmf-dist/tex/latex/beamer/beamericonarticle.20.pdf
INPUT /usr/share/texlive/texmf-dist/tex/latex/beamer/beamericonarticle.20.pdf
INPUT /usr/share/texlive/texmf-dist/tex/latex/beamer/beamericononline.pdf
INPUT /usr/share/texlive/texmf-dist/tex/latex/beamer/beamericononline.pdf
INPUT /usr/share/texlive/texmf-dist/tex/latex/beamer/beamericononline.20.pdf
INPUT /usr/share/texlive/texmf-dist/tex/latex/beamer/beamericononline.20.pdf
INPUT /usr/share/texlive/texmf-dist/tex/latex/beamer/beamerouterthemedefault.sty
INPUT /usr/share/texlive/texmf-dist/tex/latex/beamer/beamerouterthemedefault.sty
INPUT /usr/share/texlive/texmf-dist/tex/latex/base/inputenc.sty
INPUT /usr/share/texlive/texmf-dist/tex/latex/base/inputenc.sty
INPUT /usr/share/texlive/texmf-dist/tex/latex/base/fontenc.sty
INPUT /usr/share/texlive/texmf-dist/tex/latex/base/fontenc.sty
INPUT /usr/share/texlive/texmf-dist/fonts/tfm/jknappen/ec/ecss1200.tfm
INPUT /usr/share/texmf/tex/latex/lm/lmodern.sty
INPUT /usr/share/texmf/tex/latex/lm/lmodern.sty
INPUT /usr/share/texlive/texmf-dist/tex/latex/tools/array.sty
INPUT /usr/share/texlive/texmf-dist/tex/latex/tools/array.sty
INPUT /usr/share/texlive/texmf-dist/tex/generic/babel/babel.sty
INPUT /usr/share/texlive/texmf-dist/tex/generic/babel/babel.sty
INPUT /usr/share/texlive/texmf-dist/tex/generic/babel/babel.def
INPUT /usr/share/texlive/texmf-dist/tex/generic/babel/txtbabel.def
INPUT /usr/share/texlive/texmf-dist/tex/generic/babel-german/ngerman.ldf
INPUT /usr/share/texlive/texmf-dist/tex/generic/babel-german/ngerman.ldf
INPUT /usr/share/texlive/texmf-dist/tex/generic/babel-german/ngermanb.ldf
INPUT /usr/share/texlive/texmf-dist/tex/latex/booktabs/booktabs.sty
INPUT /usr/share/texlive/texmf-dist/tex/latex/booktabs/booktabs.sty
INPUT /usr/share/texlive/texmf-dist/tex/latex/tabulary/tabulary.sty
INPUT /usr/share/texlive/texmf-dist/tex/latex/tabulary/tabulary.sty
INPUT /usr/share/texlive/texmf-dist/tex/latex/tcolorbox/tcolorbox.sty
INPUT /usr/share/texlive/texmf-dist/tex/latex/tcolorbox/tcolorbox.sty
INPUT /usr/share/texlive/texmf-dist/tex/latex/pgf/basiclayer/pgf.sty
INPUT /usr/share/texlive/texmf-dist/tex/latex/pgf/basiclayer/pgf.sty
INPUT /usr/share/texlive/texmf-dist/tex/generic/pgf/modules/pgfmoduleshapes.code.tex
INPUT /usr/share/texlive/texmf-dist/tex/generic/pgf/modules/pgfmoduleplot.code.tex
INPUT /usr/share/texlive/texmf-dist/tex/latex/pgf/compatibility/pgfcomp-version-0-65.sty
INPUT /usr/share/texlive/texmf-dist/tex/latex/pgf/compatibility/pgfcomp-version-0-65.sty
INPUT /usr/share/texlive/texmf-dist/tex/latex/pgf/compatibility/pgfcomp-version-1-18.sty
INPUT /usr/share/texlive/texmf-dist/tex/latex/pgf/compatibility/pgfcomp-version-1-18.sty
INPUT /usr/share/texlive/texmf-dist/tex/latex/tools/verbatim.sty
INPUT /usr/share/texlive/texmf-dist/tex/latex/tools/verbatim.sty
INPUT /usr/share/texlive/texmf-dist/tex/latex/environ/environ.sty
INPUT /usr/share/texlive/texmf-dist/tex/latex/environ/environ.sty
INPUT /usr/share/texlive/texmf-dist/tex/latex/trimspaces/trimspaces.sty
INPUT /usr/share/texlive/texmf-dist/tex/latex/trimspaces/trimspaces.sty
INPUT /usr/share/texlive/texmf-dist/tex/latex/tcolorbox/tcbraster.code.tex
INPUT /usr/share/texlive/texmf-dist/tex/latex/tcolorbox/tcbskins.code.tex
INPUT /usr/share/texlive/texmf-dist/tex/latex/pgf/frontendlayer/tikz.sty
INPUT /usr/share/texlive/texmf-dist/tex/latex/pgf/frontendlayer/tikz.sty
INPUT /usr/share/texlive/texmf-dist/tex/latex/pgf/utilities/pgffor.sty
INPUT /usr/share/texlive/texmf-dist/tex/latex/pgf/utilities/pgffor.sty
INPUT /usr/share/texlive/texmf-dist/tex/latex/pgf/utilities/pgfkeys.sty
INPUT /usr/share/texlive/texmf-dist/tex/latex/pgf/utilities/pgfkeys.sty
INPUT /usr/share/texlive/texmf-dist/tex/generic/pgf/utilities/pgfkeys.code.tex
INPUT /usr/share/texlive/texmf-dist/tex/generic/pgf/utilities/pgfkeys.code.tex
INPUT /usr/share/texlive/texmf-dist/tex/latex/pgf/math/pgfmath.sty
INPUT /usr/share/texlive/texmf-dist/tex/latex/pgf/math/pgfmath.sty
INPUT /usr/share/texlive/texmf-dist/tex/generic/pgf/math/pgfmath.code.tex
INPUT /usr/share/texlive/texmf-dist/tex/generic/pgf/math/pgfmath.code.tex
INPUT /usr/share/texlive/texmf-dist/tex/generic/pgf/utilities/pgffor.code.tex
INPUT /usr/share/texlive/texmf-dist/tex/generic/pgf/utilities/pgffor.code.tex
INPUT /usr/share/texlive/texmf-dist/tex/generic/pgf/math/pgfmath.code.tex
INPUT /usr/share/texlive/texmf-dist/tex/generic/pgf/frontendlayer/tikz/tikz.code.tex
INPUT /usr/share/texlive/texmf-dist/tex/generic/pgf/frontendlayer/tikz/tikz.code.tex
INPUT /usr/share/texlive/texmf-dist/tex/generic/pgf/libraries/pgflibraryplothandlers.code.tex
INPUT /usr/share/texlive/texmf-dist/tex/generic/pgf/libraries/pgflibraryplothandlers.code.tex
INPUT /usr/share/texlive/texmf-dist/tex/generic/pgf/modules/pgfmodulematrix.code.tex
INPUT /usr/share/texlive/texmf-dist/tex/generic/pgf/frontendlayer/tikz/libraries/tikzlibrarytopaths.code.tex
INPUT /usr/share/texlive/texmf-dist/tex/generic/pgf/frontendlayer/tikz/libraries/tikzlibrarytopaths.code.tex
INPUT /usr/share/texlive/texmf-dist/tex/latex/tcolorbox/tcbskinsjigsaw.code.tex
INPUT /usr/share/texlive/texmf-dist/tex/latex/tcolorbox/tcbbreakable.code.tex
INPUT /usr/share/texlive/texmf-dist/tex/latex/tcolorbox/tcbhooks.code.tex
INPUT /usr/share/texlive/texmf-dist/tex/latex/tcolorbox/tcbtheorems.code.tex
INPUT /usr/share/texlive/texmf-dist/tex/latex/tcolorbox/tcbfitting.code.tex
INPUT /usr/share/texlive/texmf-dist/tex/latex/tcolorbox/tcbxparse.code.tex
INPUT /usr/share/texlive/texmf-dist/tex/latex/l3packages/xparse/xparse.sty
INPUT /usr/share/texlive/texmf-dist/tex/latex/l3packages/xparse/xparse.sty
INPUT /usr/share/texlive/texmf-dist/tex/latex/l3kernel/expl3.sty
INPUT /usr/share/texlive/texmf-dist/tex/latex/l3kernel/expl3.sty
INPUT /usr/share/texlive/texmf-dist/tex/latex/l3backend/l3backend-pdfmode.def
INPUT /usr/share/texlive/texmf-dist/tex/latex/l3backend/l3backend-pdfmode.def
INPUT /usr/share/texlive/texmf-dist/tex/latex/l3packages/xparse/xparse-generic.tex
INPUT /usr/share/texlive/texmf-dist/tex/latex/l3packages/xparse/xparse-generic.tex
INPUT /usr/share/texlive/texmf-dist/tex/latex/tcolorbox/tcblistingsutf8.code.tex
INPUT /usr/share/texlive/texmf-dist/tex/latex/tcolorbox/tcblistings.code.tex
INPUT /usr/share/texlive/texmf-dist/tex/latex/listings/listings.sty
INPUT /usr/share/texlive/texmf-dist/tex/latex/listings/listings.sty
INPUT /usr/share/texlive/texmf-dist/tex/latex/listings/lstmisc.sty
INPUT /usr/share/texlive/texmf-dist/tex/latex/listings/lstmisc.sty
INPUT /usr/share/texlive/texmf-dist/tex/latex/listings/listings.cfg
INPUT /usr/share/texlive/texmf-dist/tex/latex/listings/listings.cfg
INPUT /usr/share/texlive/texmf-dist/tex/latex/tcolorbox/tcblistingscore.code.tex
INPUT /usr/share/texlive/texmf-dist/tex/latex/tcolorbox/tcbprocessing.code.tex
INPUT /usr/share/texlive/texmf-dist/tex/latex/tools/shellesc.sty
INPUT /usr/share/texlive/texmf-dist/tex/latex/tools/shellesc.sty
INPUT /usr/share/texlive/texmf-dist/tex/latex/listingsutf8/listingsutf8.sty
INPUT /usr/share/texlive/texmf-dist/tex/latex/listingsutf8/listingsutf8.sty
INPUT /usr/share/texlive/texmf-dist/tex/generic/stringenc/stringenc.sty
INPUT /usr/share/texlive/texmf-dist/tex/generic/stringenc/stringenc.sty
INPUT /usr/share/texlive/texmf-dist/tex/latex/tcolorbox/tcbexternal.code.tex
INPUT /usr/share/texlive/texmf-dist/tex/latex/tcolorbox/tcbmagazine.code.tex
INPUT /usr/share/texlive/texmf-dist/tex/latex/tcolorbox/tcbvignette.code.tex
INPUT /usr/share/texlive/texmf-dist/tex/generic/pgf/frontendlayer/tikz/libraries/tikzlibraryfadings.code.tex
INPUT /usr/share/texlive/texmf-dist/tex/generic/pgf/frontendlayer/tikz/libraries/tikzlibraryfadings.code.tex
INPUT /usr/share/texlive/texmf-dist/tex/generic/pgf/libraries/pgflibraryfadings.code.tex
INPUT /usr/share/texlive/texmf-dist/tex/generic/pgf/libraries/pgflibraryfadings.code.tex
INPUT /usr/share/texlive/texmf-dist/tex/latex/tcolorbox/tcbposter.code.tex
INPUT /usr/share/texlive/texmf-dist/tex/generic/pgf/frontendlayer/tikz/libraries/tikzlibrarypositioning.code.tex
INPUT /usr/share/texlive/texmf-dist/tex/generic/pgf/frontendlayer/tikz/libraries/tikzlibrarypositioning.code.tex
INPUT /usr/share/texlive/texmf-dist/tex/generic/pgf/frontendlayer/tikz/libraries/tikzlibraryarrows.code.tex
INPUT /usr/share/texlive/texmf-dist/tex/generic/pgf/frontendlayer/tikz/libraries/tikzlibraryarrows.code.tex
INPUT /usr/share/texlive/texmf-dist/tex/generic/pgf/libraries/pgflibraryarrows.code.tex
INPUT /usr/share/texlive/texmf-dist/tex/generic/pgf/libraries/pgflibraryarrows.code.tex
INPUT /usr/share/texlive/texmf-dist/tex/generic/pgf/frontendlayer/tikz/libraries/tikzlibraryshapes.code.tex
INPUT /usr/share/texlive/texmf-dist/tex/generic/pgf/frontendlayer/tikz/libraries/tikzlibraryshapes.code.tex
INPUT /usr/share/texlive/texmf-dist/tex/generic/pgf/frontendlayer/tikz/libraries/tikzlibraryshapes.geometric.code.tex
INPUT /usr/share/texlive/texmf-dist/tex/generic/pgf/frontendlayer/tikz/libraries/tikzlibraryshapes.geometric.code.tex
INPUT /usr/share/texlive/texmf-dist/tex/generic/pgf/libraries/shapes/pgflibraryshapes.geometric.code.tex
INPUT /usr/share/texlive/texmf-dist/tex/generic/pgf/libraries/shapes/pgflibraryshapes.geometric.code.tex
INPUT /usr/share/texlive/texmf-dist/tex/generic/pgf/frontendlayer/tikz/libraries/tikzlibraryshapes.misc.code.tex
INPUT /usr/share/texlive/texmf-dist/tex/generic/pgf/frontendlayer/tikz/libraries/tikzlibraryshapes.misc.code.tex
INPUT /usr/share/texlive/texmf-dist/tex/generic/pgf/libraries/shapes/pgflibraryshapes.misc.code.tex
INPUT /usr/share/texlive/texmf-dist/tex/generic/pgf/libraries/shapes/pgflibraryshapes.misc.code.tex
INPUT /usr/share/texlive/texmf-dist/tex/generic/pgf/frontendlayer/tikz/libraries/tikzlibraryshapes.symbols.code.tex
INPUT /usr/share/texlive/texmf-dist/tex/generic/pgf/frontendlayer/tikz/libraries/tikzlibraryshapes.symbols.code.tex
INPUT /usr/share/texlive/texmf-dist/tex/generic/pgf/libraries/shapes/pgflibraryshapes.symbols.code.tex
INPUT /usr/share/texlive/texmf-dist/tex/generic/pgf/libraries/shapes/pgflibraryshapes.symbols.code.tex
INPUT /usr/share/texlive/texmf-dist/tex/generic/pgf/frontendlayer/tikz/libraries/tikzlibraryshapes.arrows.code.tex
INPUT /usr/share/texlive/texmf-dist/tex/generic/pgf/frontendlayer/tikz/libraries/tikzlibraryshapes.arrows.code.tex
INPUT /usr/share/texlive/texmf-dist/tex/generic/pgf/libraries/shapes/pgflibraryshapes.arrows.code.tex
INPUT /usr/share/texlive/texmf-dist/tex/generic/pgf/libraries/shapes/pgflibraryshapes.arrows.code.tex
INPUT /usr/share/texlive/texmf-dist/tex/generic/pgf/frontendlayer/tikz/libraries/tikzlibraryshapes.callouts.code.tex
INPUT /usr/share/texlive/texmf-dist/tex/generic/pgf/frontendlayer/tikz/libraries/tikzlibraryshapes.callouts.code.tex
INPUT /usr/share/texlive/texmf-dist/tex/generic/pgf/libraries/shapes/pgflibraryshapes.callouts.code.tex
INPUT /usr/share/texlive/texmf-dist/tex/generic/pgf/libraries/shapes/pgflibraryshapes.callouts.code.tex
INPUT /usr/share/texlive/texmf-dist/tex/generic/pgf/frontendlayer/tikz/libraries/tikzlibraryshapes.multipart.code.tex
INPUT /usr/share/texlive/texmf-dist/tex/generic/pgf/frontendlayer/tikz/libraries/tikzlibraryshapes.multipart.code.tex
INPUT /usr/share/texlive/texmf-dist/tex/generic/pgf/libraries/shapes/pgflibraryshapes.multipart.code.tex
INPUT /usr/share/texlive/texmf-dist/tex/generic/pgf/libraries/shapes/pgflibraryshapes.multipart.code.tex
INPUT /home/ziska/Projects/Uni/disaster-tweets/Berichte/Praesentation/aurl.sty
INPUT /home/ziska/Projects/Uni/disaster-tweets/Berichte/Praesentation/aurl.sty
INPUT /usr/share/texlive/texmf-dist/tex/latex/setspace/setspace.sty
INPUT /usr/share/texlive/texmf-dist/tex/latex/setspace/setspace.sty
INPUT /home/ziska/Projects/Uni/disaster-tweets/Berichte/Praesentation/beamerthemeimise2.sty
INPUT /home/ziska/Projects/Uni/disaster-tweets/Berichte/Praesentation/beamerthemeimise2.sty
INPUT /usr/share/texlive/texmf-dist/tex/latex/beamer/beamercolorthemedolphin.sty
INPUT /usr/share/texlive/texmf-dist/tex/latex/beamer/beamercolorthemedolphin.sty
INPUT /usr/share/texlive/texmf-dist/tex/latex/adjustbox/adjustbox.sty
INPUT /usr/share/texlive/texmf-dist/tex/latex/adjustbox/adjustbox.sty
INPUT /usr/share/texlive/texmf-dist/tex/latex/xkeyval/xkeyval.sty
INPUT /usr/share/texlive/texmf-dist/tex/latex/xkeyval/xkeyval.sty
INPUT /usr/share/texlive/texmf-dist/tex/generic/xkeyval/xkeyval.tex
INPUT /usr/share/texlive/texmf-dist/tex/generic/xkeyval/xkvutils.tex
INPUT /usr/share/texlive/texmf-dist/tex/latex/adjustbox/adjcalc.sty
INPUT /usr/share/texlive/texmf-dist/tex/latex/adjustbox/adjcalc.sty
INPUT /usr/share/texlive/texmf-dist/tex/latex/adjustbox/trimclip.sty
INPUT /usr/share/texlive/texmf-dist/tex/latex/adjustbox/trimclip.sty
INPUT /usr/share/texlive/texmf-dist/tex/latex/collectbox/collectbox.sty
INPUT /usr/share/texlive/texmf-dist/tex/latex/collectbox/collectbox.sty
INPUT /usr/share/texlive/texmf-dist/tex/latex/adjustbox/tc-pdftex.def
INPUT /usr/share/texlive/texmf-dist/tex/latex/adjustbox/tc-pdftex.def
INPUT /usr/share/texlive/texmf-dist/tex/latex/ifoddpage/ifoddpage.sty
INPUT /usr/share/texlive/texmf-dist/tex/latex/ifoddpage/ifoddpage.sty
INPUT /usr/share/texlive/texmf-dist/tex/latex/ifoddpage/ifoddpage.sty
INPUT /usr/share/texlive/texmf-dist/tex/latex/varwidth/varwidth.sty
INPUT /usr/share/texlive/texmf-dist/tex/latex/varwidth/varwidth.sty
INPUT /usr/share/texlive/texmf-dist/tex/latex/varwidth/varwidth.sty
INPUT /home/ziska/Projects/Uni/disaster-tweets/Berichte/Praesentation/slides.aux
INPUT /home/ziska/Projects/Uni/disaster-tweets/Berichte/Praesentation/slides.aux
OUTPUT /home/ziska/Projects/Uni/disaster-tweets/Berichte/Praesentation/slides.aux
INPUT /usr/share/texmf/tex/latex/lm/t1lmss.fd
INPUT /usr/share/texmf/tex/latex/lm/t1lmss.fd
INPUT /usr/share/texmf/fonts/tfm/public/lm/ec-lmss12.tfm
INPUT /usr/share/texlive/texmf-dist/tex/context/base/mkii/supp-pdf.mkii
INPUT /usr/share/texlive/texmf-dist/tex/context/base/mkii/supp-pdf.mkii
INPUT /usr/share/texlive/texmf-dist/tex/latex/epstopdf-pkg/epstopdf-base.sty
INPUT /usr/share/texlive/texmf-dist/tex/latex/epstopdf-pkg/epstopdf-base.sty
INPUT /usr/share/texlive/texmf-dist/tex/latex/latexconfig/epstopdf-sys.cfg
INPUT /usr/share/texlive/texmf-dist/tex/latex/latexconfig/epstopdf-sys.cfg
INPUT /usr/share/texlive/texmf-dist/tex/latex/hyperref/nameref.sty
INPUT /usr/share/texlive/texmf-dist/tex/latex/hyperref/nameref.sty
INPUT /usr/share/texlive/texmf-dist/tex/latex/refcount/refcount.sty
INPUT /usr/share/texlive/texmf-dist/tex/latex/refcount/refcount.sty
INPUT /usr/share/texlive/texmf-dist/tex/generic/gettitlestring/gettitlestring.sty
INPUT /usr/share/texlive/texmf-dist/tex/generic/gettitlestring/gettitlestring.sty
INPUT /home/ziska/Projects/Uni/disaster-tweets/Berichte/Praesentation/slides.out
INPUT /home/ziska/Projects/Uni/disaster-tweets/Berichte/Praesentation/slides.out
INPUT /home/ziska/Projects/Uni/disaster-tweets/Berichte/Praesentation/slides.out
INPUT /home/ziska/Projects/Uni/disaster-tweets/Berichte/Praesentation/slides.out
INPUT /home/ziska/Projects/Uni/disaster-tweets/Berichte/Praesentation/slides.out
INPUT /home/ziska/Projects/Uni/disaster-tweets/Berichte/Praesentation/slides.out
OUTPUT /home/ziska/Projects/Uni/disaster-tweets/Berichte/Praesentation/slides.out
INPUT /usr/share/texlive/texmf-dist/tex/latex/translator/translator-basic-dictionary-English.dict
INPUT /usr/share/texlive/texmf-dist/tex/latex/translator/translator-basic-dictionary-English.dict
INPUT /usr/share/texlive/texmf-dist/tex/latex/translator/translator-bibliography-dictionary-English.dict
INPUT /usr/share/texlive/texmf-dist/tex/latex/translator/translator-bibliography-dictionary-English.dict
INPUT /usr/share/texlive/texmf-dist/tex/latex/translator/translator-environment-dictionary-English.dict
INPUT /usr/share/texlive/texmf-dist/tex/latex/translator/translator-environment-dictionary-English.dict
INPUT /usr/share/texlive/texmf-dist/tex/latex/translator/translator-months-dictionary-English.dict
INPUT /usr/share/texlive/texmf-dist/tex/latex/translator/translator-months-dictionary-English.dict
INPUT /usr/share/texlive/texmf-dist/tex/latex/translator/translator-numbers-dictionary-English.dict
INPUT /usr/share/texlive/texmf-dist/tex/latex/translator/translator-numbers-dictionary-English.dict
INPUT /usr/share/texlive/texmf-dist/tex/latex/translator/translator-theorem-dictionary-English.dict
INPUT /usr/share/texlive/texmf-dist/tex/latex/translator/translator-theorem-dictionary-English.dict
INPUT /home/ziska/Projects/Uni/disaster-tweets/Berichte/Praesentation/slides.nav
INPUT /home/ziska/Projects/Uni/disaster-tweets/Berichte/Praesentation/slides.nav
INPUT /usr/share/texmf/fonts/tfm/public/lm/ec-lmss8.tfm
INPUT /usr/share/texmf/fonts/tfm/public/lm/ec-lmss17.tfm
INPUT /usr/share/texmf/fonts/tfm/public/lm/ec-lmssbx10.tfm
INPUT /home/ziska/Projects/Uni/disaster-tweets/Berichte/Praesentation/img/Universität_Leipzig_Logo.png
INPUT /home/ziska/Projects/Uni/disaster-tweets/Berichte/Praesentation/img/Universität_Leipzig_Logo.png
INPUT /home/ziska/Projects/Uni/disaster-tweets/Berichte/Praesentation/img/Universität_Leipzig_Logo.png
INPUT /usr/share/texmf/fonts/tfm/public/lm/ec-lmss8.tfm
INPUT /var/lib/texmf/fonts/map/pdftex/updmap/pdftex.map
INPUT /usr/share/texmf/fonts/tfm/public/lm/ec-lmss10.tfm
INPUT /usr/share/texmf/fonts/tfm/public/lm/ec-lmss17.tfm
INPUT /home/ziska/Projects/Uni/disaster-tweets/Berichte/Praesentation/img/unileipzig-text.pdf
INPUT /home/ziska/Projects/Uni/disaster-tweets/Berichte/Praesentation/img/unileipzig-text.pdf
INPUT /home/ziska/Projects/Uni/disaster-tweets/Berichte/Praesentation/img/unileipzig-text.pdf
INPUT /home/ziska/Projects/Uni/disaster-tweets/Berichte/Praesentation/img/unileipzig-text.pdf
INPUT /home/ziska/Projects/Uni/disaster-tweets/Berichte/Praesentation/img/unileipzig-text.pdf
INPUT /usr/share/texmf/fonts/tfm/public/lm/ec-lmssbx10.tfm
INPUT /home/ziska/Projects/Uni/disaster-tweets/Berichte/Praesentation/img/iota.jpg
INPUT /home/ziska/Projects/Uni/disaster-tweets/Berichte/Praesentation/img/iota.jpg
INPUT /home/ziska/Projects/Uni/disaster-tweets/Berichte/Praesentation/img/iota.jpg
INPUT /home/ziska/Projects/Uni/disaster-tweets/Berichte/Praesentation/img/surf.png
INPUT /home/ziska/Projects/Uni/disaster-tweets/Berichte/Praesentation/img/surf.png
INPUT /home/ziska/Projects/Uni/disaster-tweets/Berichte/Praesentation/img/surf.png
INPUT /usr/share/texmf/fonts/tfm/public/lm/ec-lmssbx10.tfm
INPUT /home/ziska/Projects/Uni/disaster-tweets/Berichte/Praesentation/img/unileipzig-text.pdf
INPUT /home/ziska/Projects/Uni/disaster-tweets/Berichte/Praesentation/img/unileipzig-text.pdf
INPUT /usr/share/texmf/tex/latex/lm/ot1lmss.fd
INPUT /usr/share/texmf/tex/latex/lm/ot1lmss.fd
INPUT /usr/share/texmf/fonts/tfm/public/lm/rm-lmss12.tfm
INPUT /usr/share/texmf/fonts/tfm/public/lm/rm-lmss8.tfm
INPUT /usr/share/texmf/fonts/tfm/public/lm/rm-lmss8.tfm
INPUT /usr/share/texmf/tex/latex/lm/omllmm.fd
INPUT /usr/share/texmf/tex/latex/lm/omllmm.fd
INPUT /usr/share/texmf/fonts/tfm/public/lm/lmmi12.tfm
INPUT /usr/share/texmf/fonts/tfm/public/lm/lmmi8.tfm
INPUT /usr/share/texmf/fonts/tfm/public/lm/lmmi6.tfm
INPUT /usr/share/texmf/tex/latex/lm/omslmsy.fd
INPUT /usr/share/texmf/tex/latex/lm/omslmsy.fd
INPUT /usr/share/texmf/fonts/tfm/public/lm/lmsy10.tfm
INPUT /usr/share/texmf/fonts/tfm/public/lm/lmsy8.tfm
INPUT /usr/share/texmf/fonts/tfm/public/lm/lmsy6.tfm
INPUT /usr/share/texmf/tex/latex/lm/omxlmex.fd
INPUT /usr/share/texmf/tex/latex/lm/omxlmex.fd
INPUT /usr/share/texmf/fonts/tfm/public/lm/lmex10.tfm
INPUT /usr/share/texlive/texmf-dist/tex/latex/amsfonts/umsa.fd
INPUT /usr/share/texlive/texmf-dist/tex/latex/amsfonts/umsa.fd
INPUT /usr/share/texlive/texmf-dist/fonts/tfm/public/amsfonts/symbols/msam10.tfm
INPUT /usr/share/texlive/texmf-dist/fonts/tfm/public/amsfonts/symbols/msam10.tfm
INPUT /usr/share/texlive/texmf-dist/fonts/tfm/public/amsfonts/symbols/msam7.tfm
INPUT /usr/share/texlive/texmf-dist/tex/latex/amsfonts/umsb.fd
INPUT /usr/share/texlive/texmf-dist/tex/latex/amsfonts/umsb.fd
INPUT /usr/share/texlive/texmf-dist/fonts/tfm/public/amsfonts/symbols/msbm10.tfm
INPUT /usr/share/texlive/texmf-dist/fonts/tfm/public/amsfonts/symbols/msbm10.tfm
INPUT /usr/share/texlive/texmf-dist/fonts/tfm/public/amsfonts/symbols/msbm7.tfm
INPUT /usr/share/texmf/fonts/tfm/public/lm/ec-lmss8.tfm
INPUT /usr/share/texmf/fonts/tfm/public/lm/ec-lmsso12.tfm
INPUT /usr/share/texmf/fonts/tfm/public/lm/ec-lmsso8.tfm
INPUT /usr/share/texmf/fonts/tfm/public/lm/ec-lmsso8.tfm
INPUT /usr/share/texmf/fonts/tfm/public/lm/rm-lmss10.tfm
INPUT /usr/share/texmf/fonts/tfm/public/lm/lmmi10.tfm
INPUT /usr/share/texmf/fonts/tfm/public/lm/lmsy10.tfm
INPUT /usr/share/texlive/texmf-dist/fonts/tfm/public/amsfonts/symbols/msam10.tfm
INPUT /usr/share/texlive/texmf-dist/fonts/tfm/public/amsfonts/symbols/msbm10.tfm
INPUT /usr/share/texmf/fonts/tfm/public/lm/ec-lmsso10.tfm
INPUT /usr/share/texmf/fonts/tfm/public/lm/ec-lmss10.tfm
INPUT /usr/share/texmf/fonts/tfm/public/lm/rm-lmss10.tfm
INPUT /usr/share/texmf/fonts/tfm/public/lm/rm-lmss8.tfm
INPUT /usr/share/texmf/fonts/tfm/public/lm/rm-lmss8.tfm
INPUT /usr/share/texmf/fonts/tfm/public/lm/lmmi10.tfm
INPUT /usr/share/texmf/fonts/tfm/public/lm/lmmi7.tfm
INPUT /usr/share/texmf/fonts/tfm/public/lm/lmmi5.tfm
INPUT /usr/share/texmf/fonts/tfm/public/lm/lmsy10.tfm
INPUT /usr/share/texmf/fonts/tfm/public/lm/lmsy7.tfm
INPUT /usr/share/texmf/fonts/tfm/public/lm/lmsy5.tfm
INPUT /usr/share/texlive/texmf-dist/fonts/tfm/public/amsfonts/symbols/msam10.tfm
INPUT /usr/share/texlive/texmf-dist/fonts/tfm/public/amsfonts/symbols/msam7.tfm
INPUT /usr/share/texlive/texmf-dist/fonts/tfm/public/amsfonts/symbols/msam5.tfm
INPUT /usr/share/texlive/texmf-dist/fonts/tfm/public/amsfonts/symbols/msbm10.tfm
INPUT /usr/share/texlive/texmf-dist/fonts/tfm/public/amsfonts/symbols/msbm7.tfm
INPUT /usr/share/texlive/texmf-dist/fonts/tfm/public/amsfonts/symbols/msbm5.tfm
INPUT /usr/share/texmf/fonts/tfm/public/lm/ec-lmss8.tfm
INPUT /usr/share/texmf/fonts/tfm/public/lm/ec-lmss8.tfm
INPUT /usr/share/texmf/fonts/tfm/public/lm/ec-lmsso10.tfm
INPUT /usr/share/texmf/fonts/tfm/public/lm/ec-lmsso8.tfm
INPUT /usr/share/texmf/fonts/tfm/public/lm/ec-lmsso8.tfm
INPUT /home/ziska/Projects/Uni/disaster-tweets/Berichte/Praesentation/img/unileipzig-text.pdf
INPUT /home/ziska/Projects/Uni/disaster-tweets/Berichte/Praesentation/img/unileipzig-text.pdf
INPUT /home/ziska/Projects/Uni/disaster-tweets/Berichte/Praesentation/img/unileipzig-text.pdf
INPUT /home/ziska/Projects/Uni/disaster-tweets/Berichte/Praesentation/img/unileipzig-text.pdf
INPUT /home/ziska/Projects/Uni/disaster-tweets/Berichte/Praesentation/img/unileipzig-text.pdf
INPUT /home/ziska/Projects/Uni/disaster-tweets/Berichte/Praesentation/img/unileipzig-text.pdf
INPUT /home/ziska/Projects/Uni/disaster-tweets/Berichte/Praesentation/img/plan.jpg
INPUT /home/ziska/Projects/Uni/disaster-tweets/Berichte/Praesentation/img/plan.jpg
INPUT /home/ziska/Projects/Uni/disaster-tweets/Berichte/Praesentation/img/plan.jpg
INPUT /home/ziska/Projects/Uni/disaster-tweets/Berichte/Praesentation/img/unileipzig-text.pdf
INPUT /home/ziska/Projects/Uni/disaster-tweets/Berichte/Praesentation/img/unileipzig-text.pdf
INPUT /usr/share/texmf/fonts/tfm/public/lm/ec-lmss17.tfm
INPUT /usr/share/texmf/fonts/tfm/public/lm/ec-lmssbx10.tfm
INPUT /home/ziska/Projects/Uni/disaster-tweets/Berichte/Praesentation/img/unileipzig-text.pdf
INPUT /home/ziska/Projects/Uni/disaster-tweets/Berichte/Praesentation/img/unileipzig-text.pdf
INPUT /usr/share/texmf/fonts/tfm/public/lm/ec-lmssbx10.tfm
INPUT /home/ziska/Projects/Uni/disaster-tweets/Berichte/Praesentation/img/unileipzig-text.pdf
INPUT /home/ziska/Projects/Uni/disaster-tweets/Berichte/Praesentation/img/unileipzig-text.pdf
INPUT /home/ziska/Projects/Uni/disaster-tweets/Berichte/Praesentation/img/train_origin.png
INPUT /home/ziska/Projects/Uni/disaster-tweets/Berichte/Praesentation/img/train_origin.png
INPUT /home/ziska/Projects/Uni/disaster-tweets/Berichte/Praesentation/img/train_origin.png
INPUT /home/ziska/Projects/Uni/disaster-tweets/Berichte/Praesentation/img/unileipzig-text.pdf
INPUT /home/ziska/Projects/Uni/disaster-tweets/Berichte/Praesentation/img/unileipzig-text.pdf
INPUT /home/ziska/Projects/Uni/disaster-tweets/Berichte/Praesentation/img/test_origin.png
INPUT /home/ziska/Projects/Uni/disaster-tweets/Berichte/Praesentation/img/test_origin.png
INPUT /home/ziska/Projects/Uni/disaster-tweets/Berichte/Praesentation/img/test_origin.png
INPUT /home/ziska/Projects/Uni/disaster-tweets/Berichte/Praesentation/img/unileipzig-text.pdf
INPUT /home/ziska/Projects/Uni/disaster-tweets/Berichte/Praesentation/img/unileipzig-text.pdf
INPUT /home/ziska/Projects/Uni/disaster-tweets/Berichte/Praesentation/img/unileipzig-text.pdf
INPUT /home/ziska/Projects/Uni/disaster-tweets/Berichte/Praesentation/img/unileipzig-text.pdf
INPUT /home/ziska/Projects/Uni/disaster-tweets/Berichte/Praesentation/img/top30keys0.png
INPUT /home/ziska/Projects/Uni/disaster-tweets/Berichte/Praesentation/img/top30keys0.png
INPUT /home/ziska/Projects/Uni/disaster-tweets/Berichte/Praesentation/img/top30keys0.png
INPUT /home/ziska/Projects/Uni/disaster-tweets/Berichte/Praesentation/img/top30keys1.png
INPUT /home/ziska/Projects/Uni/disaster-tweets/Berichte/Praesentation/img/top30keys1.png
INPUT /home/ziska/Projects/Uni/disaster-tweets/Berichte/Praesentation/img/top30keys1.png
INPUT /home/ziska/Projects/Uni/disaster-tweets/Berichte/Praesentation/img/unileipzig-text.pdf
INPUT /home/ziska/Projects/Uni/disaster-tweets/Berichte/Praesentation/img/unileipzig-text.pdf
INPUT /home/ziska/Projects/Uni/disaster-tweets/Berichte/Praesentation/img/unileipzig-text.pdf
INPUT /home/ziska/Projects/Uni/disaster-tweets/Berichte/Praesentation/img/unileipzig-text.pdf
INPUT /home/ziska/Projects/Uni/disaster-tweets/Berichte/Praesentation/img/loc0.png
INPUT /home/ziska/Projects/Uni/disaster-tweets/Berichte/Praesentation/img/loc0.png
INPUT /home/ziska/Projects/Uni/disaster-tweets/Berichte/Praesentation/img/loc0.png
INPUT /home/ziska/Projects/Uni/disaster-tweets/Berichte/Praesentation/img/loc1.png
INPUT /home/ziska/Projects/Uni/disaster-tweets/Berichte/Praesentation/img/loc1.png
INPUT /home/ziska/Projects/Uni/disaster-tweets/Berichte/Praesentation/img/loc1.png
INPUT /home/ziska/Projects/Uni/disaster-tweets/Berichte/Praesentation/img/unileipzig-text.pdf
INPUT /home/ziska/Projects/Uni/disaster-tweets/Berichte/Praesentation/img/unileipzig-text.pdf
INPUT /home/ziska/Projects/Uni/disaster-tweets/Berichte/Praesentation/img/unileipzig-text.pdf
INPUT /home/ziska/Projects/Uni/disaster-tweets/Berichte/Praesentation/img/unileipzig-text.pdf
INPUT /home/ziska/Projects/Uni/disaster-tweets/Berichte/Praesentation/img/unileipzig-text.pdf
INPUT /home/ziska/Projects/Uni/disaster-tweets/Berichte/Praesentation/img/unileipzig-text.pdf
INPUT /home/ziska/Projects/Uni/disaster-tweets/Berichte/Praesentation/img/unileipzig-text.pdf
INPUT /home/ziska/Projects/Uni/disaster-tweets/Berichte/Praesentation/img/unileipzig-text.pdf
INPUT /home/ziska/Projects/Uni/disaster-tweets/Berichte/Praesentation/img/unileipzig-text.pdf
INPUT /home/ziska/Projects/Uni/disaster-tweets/Berichte/Praesentation/img/unileipzig-text.pdf
INPUT /home/ziska/Projects/Uni/disaster-tweets/Berichte/Praesentation/img/disaster-tweets-preprocessing-0.png
INPUT /home/ziska/Projects/Uni/disaster-tweets/Berichte/Praesentation/img/disaster-tweets-preprocessing-0.png
INPUT /home/ziska/Projects/Uni/disaster-tweets/Berichte/Praesentation/img/disaster-tweets-preprocessing-0.png
INPUT /home/ziska/Projects/Uni/disaster-tweets/Berichte/Praesentation/img/unileipzig-text.pdf
INPUT /home/ziska/Projects/Uni/disaster-tweets/Berichte/Praesentation/img/unileipzig-text.pdf
INPUT /home/ziska/Projects/Uni/disaster-tweets/Berichte/Praesentation/img/disaster-tweets-preprocessing-1.png
INPUT /home/ziska/Projects/Uni/disaster-tweets/Berichte/Praesentation/img/disaster-tweets-preprocessing-1.png
INPUT /home/ziska/Projects/Uni/disaster-tweets/Berichte/Praesentation/img/disaster-tweets-preprocessing-1.png
INPUT /home/ziska/Projects/Uni/disaster-tweets/Berichte/Praesentation/img/unileipzig-text.pdf
INPUT /home/ziska/Projects/Uni/disaster-tweets/Berichte/Praesentation/img/unileipzig-text.pdf
INPUT /home/ziska/Projects/Uni/disaster-tweets/Berichte/Praesentation/img/NaNs.png
INPUT /home/ziska/Projects/Uni/disaster-tweets/Berichte/Praesentation/img/NaNs.png
INPUT /home/ziska/Projects/Uni/disaster-tweets/Berichte/Praesentation/img/NaNs.png
INPUT /home/ziska/Projects/Uni/disaster-tweets/Berichte/Praesentation/img/unileipzig-text.pdf
INPUT /home/ziska/Projects/Uni/disaster-tweets/Berichte/Praesentation/img/unileipzig-text.pdf
INPUT /home/ziska/Projects/Uni/disaster-tweets/Berichte/Praesentation/img/disaster-tweets-preprocessing-2.png
INPUT /home/ziska/Projects/Uni/disaster-tweets/Berichte/Praesentation/img/disaster-tweets-preprocessing-2.png
INPUT /home/ziska/Projects/Uni/disaster-tweets/Berichte/Praesentation/img/disaster-tweets-preprocessing-2.png
INPUT /home/ziska/Projects/Uni/disaster-tweets/Berichte/Praesentation/img/unileipzig-text.pdf
INPUT /home/ziska/Projects/Uni/disaster-tweets/Berichte/Praesentation/img/unileipzig-text.pdf
INPUT /home/ziska/Projects/Uni/disaster-tweets/Berichte/Praesentation/img/disaster-tweets-preprocessing-3.png
INPUT /home/ziska/Projects/Uni/disaster-tweets/Berichte/Praesentation/img/disaster-tweets-preprocessing-3.png
INPUT /home/ziska/Projects/Uni/disaster-tweets/Berichte/Praesentation/img/disaster-tweets-preprocessing-3.png
INPUT /home/ziska/Projects/Uni/disaster-tweets/Berichte/Praesentation/img/unileipzig-text.pdf
INPUT /home/ziska/Projects/Uni/disaster-tweets/Berichte/Praesentation/img/unileipzig-text.pdf
INPUT /home/ziska/Projects/Uni/disaster-tweets/Berichte/Praesentation/img/disaster-tweets-preprocessing-4.png
INPUT /home/ziska/Projects/Uni/disaster-tweets/Berichte/Praesentation/img/disaster-tweets-preprocessing-4.png
INPUT /home/ziska/Projects/Uni/disaster-tweets/Berichte/Praesentation/img/disaster-tweets-preprocessing-4.png
INPUT /home/ziska/Projects/Uni/disaster-tweets/Berichte/Praesentation/img/unileipzig-text.pdf
INPUT /home/ziska/Projects/Uni/disaster-tweets/Berichte/Praesentation/img/unileipzig-text.pdf
INPUT /home/ziska/Projects/Uni/disaster-tweets/Berichte/Praesentation/img/table_tfidf.png
INPUT /home/ziska/Projects/Uni/disaster-tweets/Berichte/Praesentation/img/table_tfidf.png
INPUT /home/ziska/Projects/Uni/disaster-tweets/Berichte/Praesentation/img/table_tfidf.png
INPUT /home/ziska/Projects/Uni/disaster-tweets/Berichte/Praesentation/img/unileipzig-text.pdf
INPUT /home/ziska/Projects/Uni/disaster-tweets/Berichte/Praesentation/img/unileipzig-text.pdf
INPUT /home/ziska/Projects/Uni/disaster-tweets/Berichte/Praesentation/img/w2v.png
INPUT /home/ziska/Projects/Uni/disaster-tweets/Berichte/Praesentation/img/w2v.png
INPUT /home/ziska/Projects/Uni/disaster-tweets/Berichte/Praesentation/img/w2v.png
INPUT /home/ziska/Projects/Uni/disaster-tweets/Berichte/Praesentation/img/unileipzig-text.pdf
INPUT /home/ziska/Projects/Uni/disaster-tweets/Berichte/Praesentation/img/unileipzig-text.pdf
INPUT /home/ziska/Projects/Uni/disaster-tweets/Berichte/Praesentation/img/table_bow.png
INPUT /home/ziska/Projects/Uni/disaster-tweets/Berichte/Praesentation/img/table_bow.png
INPUT /home/ziska/Projects/Uni/disaster-tweets/Berichte/Praesentation/img/table_bow.png
INPUT /home/ziska/Projects/Uni/disaster-tweets/Berichte/Praesentation/img/unileipzig-text.pdf
INPUT /home/ziska/Projects/Uni/disaster-tweets/Berichte/Praesentation/img/unileipzig-text.pdf
INPUT /home/ziska/Projects/Uni/disaster-tweets/Berichte/Praesentation/img/unileipzig-text.pdf
INPUT /home/ziska/Projects/Uni/disaster-tweets/Berichte/Praesentation/img/unileipzig-text.pdf
INPUT /home/ziska/Projects/Uni/disaster-tweets/Berichte/Praesentation/img/unileipzig-text.pdf
INPUT /home/ziska/Projects/Uni/disaster-tweets/Berichte/Praesentation/img/unileipzig-text.pdf
INPUT /home/ziska/Projects/Uni/disaster-tweets/Berichte/Praesentation/img/datasets.png
INPUT /home/ziska/Projects/Uni/disaster-tweets/Berichte/Praesentation/img/datasets.png
INPUT /home/ziska/Projects/Uni/disaster-tweets/Berichte/Praesentation/img/datasets.png
INPUT /home/ziska/Projects/Uni/disaster-tweets/Berichte/Praesentation/img/unileipzig-text.pdf
INPUT /home/ziska/Projects/Uni/disaster-tweets/Berichte/Praesentation/img/unileipzig-text.pdf
INPUT /home/ziska/Projects/Uni/disaster-tweets/Berichte/Praesentation/img/unileipzig-text.pdf
INPUT /home/ziska/Projects/Uni/disaster-tweets/Berichte/Praesentation/img/unileipzig-text.pdf
INPUT /home/ziska/Projects/Uni/disaster-tweets/Berichte/Praesentation/img/unileipzig-text.pdf
INPUT /home/ziska/Projects/Uni/disaster-tweets/Berichte/Praesentation/img/unileipzig-text.pdf
INPUT /home/ziska/Projects/Uni/disaster-tweets/Berichte/Praesentation/img/unileipzig-text.pdf
INPUT /home/ziska/Projects/Uni/disaster-tweets/Berichte/Praesentation/img/unileipzig-text.pdf
INPUT /home/ziska/Projects/Uni/disaster-tweets/Berichte/Praesentation/img/disaster-tweets-preprocessing-0.png
INPUT /home/ziska/Projects/Uni/disaster-tweets/Berichte/Praesentation/img/disaster-tweets-preprocessing-0.png
INPUT /home/ziska/Projects/Uni/disaster-tweets/Berichte/Praesentation/img/unileipzig-text.pdf
INPUT /home/ziska/Projects/Uni/disaster-tweets/Berichte/Praesentation/img/unileipzig-text.pdf
INPUT /home/ziska/Projects/Uni/disaster-tweets/Berichte/Praesentation/img/disaster-tweets-preprocessing_base.png
INPUT /home/ziska/Projects/Uni/disaster-tweets/Berichte/Praesentation/img/disaster-tweets-preprocessing_base.png
INPUT /home/ziska/Projects/Uni/disaster-tweets/Berichte/Praesentation/img/disaster-tweets-preprocessing_base.png
INPUT /home/ziska/Projects/Uni/disaster-tweets/Berichte/Praesentation/img/unileipzig-text.pdf
INPUT /home/ziska/Projects/Uni/disaster-tweets/Berichte/Praesentation/img/unileipzig-text.pdf
INPUT /home/ziska/Projects/Uni/disaster-tweets/Berichte/Praesentation/img/unileipzig-text.pdf
INPUT /home/ziska/Projects/Uni/disaster-tweets/Berichte/Praesentation/img/unileipzig-text.pdf
INPUT /usr/share/texmf/tex/latex/lm/t1lmtt.fd
INPUT /usr/share/texmf/tex/latex/lm/t1lmtt.fd
INPUT /usr/share/texmf/fonts/tfm/public/lm/ec-lmtt12.tfm
INPUT /home/ziska/Projects/Uni/disaster-tweets/Berichte/Praesentation/img/unileipzig-text.pdf
INPUT /home/ziska/Projects/Uni/disaster-tweets/Berichte/Praesentation/img/unileipzig-text.pdf
INPUT /home/ziska/Projects/Uni/disaster-tweets/Berichte/Praesentation/img/unileipzig-text.pdf
INPUT /home/ziska/Projects/Uni/disaster-tweets/Berichte/Praesentation/img/unileipzig-text.pdf
INPUT /home/ziska/Projects/Uni/disaster-tweets/Berichte/Praesentation/img/unileipzig-text.pdf
INPUT /home/ziska/Projects/Uni/disaster-tweets/Berichte/Praesentation/img/unileipzig-text.pdf
INPUT /home/ziska/Projects/Uni/disaster-tweets/Berichte/Praesentation/img/unileipzig-text.pdf
INPUT /home/ziska/Projects/Uni/disaster-tweets/Berichte/Praesentation/img/unileipzig-text.pdf
OUTPUT /home/ziska/Projects/Uni/disaster-tweets/Berichte/Praesentation/slides.nav
OUTPUT /home/ziska/Projects/Uni/disaster-tweets/Berichte/Praesentation/slides.toc
OUTPUT /home/ziska/Projects/Uni/disaster-tweets/Berichte/Praesentation/slides.snm
INPUT /home/ziska/Projects/Uni/disaster-tweets/Berichte/Praesentation/img/Universität_Leipzig_Logo.png
INPUT /home/ziska/Projects/Uni/disaster-tweets/Berichte/Praesentation/img/Universität_Leipzig_Logo.png
INPUT /home/ziska/Projects/Uni/disaster-tweets/Berichte/Praesentation/slides.aux
INPUT /home/ziska/Projects/Uni/disaster-tweets/Berichte/Praesentation/slides.out
INPUT /home/ziska/Projects/Uni/disaster-tweets/Berichte/Praesentation/slides.out
INPUT /usr/share/texmf/fonts/enc/dvips/lm/lm-ec.enc
INPUT /usr/share/texmf/fonts/type1/public/lm/lmss10.pfb
INPUT /usr/share/texmf/fonts/type1/public/lm/lmss12.pfb
INPUT /usr/share/texmf/fonts/type1/public/lm/lmss17.pfb
INPUT /usr/share/texmf/fonts/type1/public/lm/lmss8.pfb
INPUT /usr/share/texmf/fonts/type1/public/lm/lmssbx10.pfb
INPUT /usr/share/texmf/fonts/type1/public/lm/lmsso10.pfb
INPUT /usr/share/texmf/fonts/type1/public/lm/lmtt12.pfb
INPUT /usr/share/texlive/texmf-dist/fonts/type1/public/amsfonts/symbols/msam10.pfb
