\relax 
\providecommand\hyper@newdestlabel[2]{}
\providecommand\HyperFirstAtBeginDocument{\AtBeginDocument}
\HyperFirstAtBeginDocument{\ifx\hyper@anchor\@undefined
\global\let\oldcontentsline\contentsline
\gdef\contentsline#1#2#3#4{\oldcontentsline{#1}{#2}{#3}}
\global\let\oldnewlabel\newlabel
\gdef\newlabel#1#2{\newlabelxx{#1}#2}
\gdef\newlabelxx#1#2#3#4#5#6{\oldnewlabel{#1}{{#2}{#3}}}
\AtEndDocument{\ifx\hyper@anchor\@undefined
\let\contentsline\oldcontentsline
\let\newlabel\oldnewlabel
\fi}
\fi}
\global\let\hyper@last\relax 
\gdef\HyperFirstAtBeginDocument#1{#1}
\providecommand\HyField@AuxAddToFields[1]{}
\providecommand\HyField@AuxAddToCoFields[2]{}
\providecommand\babel@aux[2]{}
\@nameuse{bbl@beforestart}
\catcode `"\active 
\providecommand \oddpage@label [2]{}
\babel@aux{ngerman}{}
\pgfsyspdfmark {pgfid1}{1864679}{2548875}
\pgfsyspdfmark {pgfid2}{2634716}{2548875}
\pgfsyspdfmark {pgfid3}{3404753}{2548875}
\pgfsyspdfmark {pgfid4}{3661432}{2548875}
\@writefile{nav}{\headcommand {\slideentry {0}{0}{1}{1/1}{}{0}}}
\@writefile{nav}{\headcommand {\beamer@framepages {1}{1}}}
\pgfsyspdfmark {pgfid5}{0}{0}
\@writefile{nav}{\headcommand {\slideentry {0}{0}{2}{2/3}{}{0}}}
\@writefile{nav}{\headcommand {\beamer@framepages {2}{3}}}
\pgfsyspdfmark {pgfid6}{0}{0}
\@writefile{nav}{\headcommand {\slideentry {0}{0}{3}{4/4}{}{0}}}
\@writefile{nav}{\headcommand {\beamer@framepages {4}{4}}}
\pgfsyspdfmark {pgfid7}{0}{0}
\@writefile{nav}{\headcommand {\slideentry {0}{0}{4}{5/5}{}{0}}}
\@writefile{nav}{\headcommand {\beamer@framepages {5}{5}}}
\pgfsyspdfmark {pgfid8}{0}{0}
\@writefile{nav}{\headcommand {\slideentry {0}{0}{5}{6/6}{}{0}}}
\@writefile{nav}{\headcommand {\beamer@framepages {6}{6}}}
\pgfsyspdfmark {pgfid9}{0}{0}
\@writefile{nav}{\headcommand {\slideentry {0}{0}{6}{7/7}{}{0}}}
\@writefile{nav}{\headcommand {\beamer@framepages {7}{7}}}
\pgfsyspdfmark {pgfid10}{0}{0}
\@writefile{nav}{\headcommand {\slideentry {0}{0}{7}{8/8}{}{0}}}
\@writefile{nav}{\headcommand {\beamer@framepages {8}{8}}}
\pgfsyspdfmark {pgfid11}{0}{0}
\@writefile{nav}{\headcommand {\slideentry {0}{0}{8}{9/9}{}{0}}}
\@writefile{nav}{\headcommand {\beamer@framepages {9}{9}}}
\pgfsyspdfmark {pgfid12}{0}{0}
\@writefile{nav}{\headcommand {\slideentry {0}{0}{9}{10/10}{}{0}}}
\@writefile{nav}{\headcommand {\beamer@framepages {10}{10}}}
\pgfsyspdfmark {pgfid13}{0}{0}
\@writefile{nav}{\headcommand {\slideentry {0}{0}{10}{11/11}{}{0}}}
\@writefile{nav}{\headcommand {\beamer@framepages {11}{11}}}
\pgfsyspdfmark {pgfid14}{0}{0}
\@writefile{nav}{\headcommand {\slideentry {0}{0}{11}{12/12}{}{0}}}
\@writefile{nav}{\headcommand {\beamer@framepages {12}{12}}}
\pgfsyspdfmark {pgfid15}{0}{0}
\@writefile{nav}{\headcommand {\slideentry {0}{0}{12}{13/13}{}{0}}}
\@writefile{nav}{\headcommand {\beamer@framepages {13}{13}}}
\pgfsyspdfmark {pgfid16}{0}{0}
\@writefile{nav}{\headcommand {\slideentry {0}{0}{13}{14/14}{}{0}}}
\@writefile{nav}{\headcommand {\beamer@framepages {14}{14}}}
\pgfsyspdfmark {pgfid17}{0}{0}
\@writefile{nav}{\headcommand {\slideentry {0}{0}{14}{15/15}{}{0}}}
\@writefile{nav}{\headcommand {\beamer@framepages {15}{15}}}
\pgfsyspdfmark {pgfid18}{0}{0}
\@writefile{nav}{\headcommand {\slideentry {0}{0}{15}{16/16}{}{0}}}
\@writefile{nav}{\headcommand {\beamer@framepages {16}{16}}}
\pgfsyspdfmark {pgfid19}{0}{0}
\pgfsyspdfmark {pgfid20}{0}{0}
\@writefile{nav}{\headcommand {\slideentry {0}{0}{16}{17/18}{}{0}}}
\@writefile{nav}{\headcommand {\beamer@framepages {17}{18}}}
\pgfsyspdfmark {pgfid21}{0}{0}
\@writefile{nav}{\headcommand {\slideentry {0}{0}{17}{19/19}{}{0}}}
\@writefile{nav}{\headcommand {\beamer@framepages {19}{19}}}
\pgfsyspdfmark {pgfid22}{0}{0}
\@writefile{nav}{\headcommand {\slideentry {0}{0}{18}{20/20}{}{0}}}
\@writefile{nav}{\headcommand {\beamer@framepages {20}{20}}}
\pgfsyspdfmark {pgfid23}{0}{0}
\@writefile{nav}{\headcommand {\slideentry {0}{0}{19}{21/21}{}{0}}}
\@writefile{nav}{\headcommand {\beamer@framepages {21}{21}}}
\pgfsyspdfmark {pgfid24}{0}{0}
\@writefile{nav}{\headcommand {\slideentry {0}{0}{20}{22/22}{}{0}}}
\@writefile{nav}{\headcommand {\beamer@framepages {22}{22}}}
\pgfsyspdfmark {pgfid25}{0}{0}
\@writefile{nav}{\headcommand {\slideentry {0}{0}{21}{23/23}{}{0}}}
\@writefile{nav}{\headcommand {\beamer@framepages {23}{23}}}
\pgfsyspdfmark {pgfid26}{0}{0}
\@writefile{nav}{\headcommand {\slideentry {0}{0}{22}{24/24}{}{0}}}
\@writefile{nav}{\headcommand {\beamer@framepages {24}{24}}}
\pgfsyspdfmark {pgfid27}{0}{0}
\@writefile{nav}{\headcommand {\slideentry {0}{0}{23}{25/25}{}{0}}}
\@writefile{nav}{\headcommand {\beamer@framepages {25}{25}}}
\pgfsyspdfmark {pgfid28}{0}{0}
\@writefile{nav}{\headcommand {\slideentry {0}{0}{24}{26/26}{}{0}}}
\@writefile{nav}{\headcommand {\beamer@framepages {26}{26}}}
\pgfsyspdfmark {pgfid29}{0}{0}
\@writefile{nav}{\headcommand {\slideentry {0}{0}{25}{27/27}{}{0}}}
\@writefile{nav}{\headcommand {\beamer@framepages {27}{27}}}
\pgfsyspdfmark {pgfid30}{0}{0}
\@writefile{nav}{\headcommand {\slideentry {0}{0}{26}{28/28}{}{0}}}
\@writefile{nav}{\headcommand {\beamer@framepages {28}{28}}}
\pgfsyspdfmark {pgfid31}{0}{0}
\@writefile{nav}{\headcommand {\slideentry {0}{0}{27}{29/29}{}{0}}}
\@writefile{nav}{\headcommand {\beamer@framepages {29}{29}}}
\pgfsyspdfmark {pgfid32}{0}{0}
\@writefile{nav}{\headcommand {\slideentry {0}{0}{28}{30/30}{}{0}}}
\@writefile{nav}{\headcommand {\beamer@framepages {30}{30}}}
\pgfsyspdfmark {pgfid33}{0}{0}
\@writefile{nav}{\headcommand {\slideentry {0}{0}{29}{31/31}{}{0}}}
\@writefile{nav}{\headcommand {\beamer@framepages {31}{31}}}
\pgfsyspdfmark {pgfid34}{0}{0}
\@writefile{nav}{\headcommand {\slideentry {0}{0}{30}{32/32}{}{0}}}
\@writefile{nav}{\headcommand {\beamer@framepages {32}{32}}}
\pgfsyspdfmark {pgfid35}{0}{0}
\@writefile{nav}{\headcommand {\slideentry {0}{0}{31}{33/33}{}{0}}}
\@writefile{nav}{\headcommand {\beamer@framepages {33}{33}}}
\pgfsyspdfmark {pgfid36}{0}{0}
\@writefile{nav}{\headcommand {\slideentry {0}{0}{32}{34/34}{}{0}}}
\@writefile{nav}{\headcommand {\beamer@framepages {34}{34}}}
\pgfsyspdfmark {pgfid37}{0}{0}
\@writefile{nav}{\headcommand {\slideentry {0}{0}{33}{35/35}{}{0}}}
\@writefile{nav}{\headcommand {\beamer@framepages {35}{35}}}
\pgfsyspdfmark {pgfid38}{0}{0}
\@writefile{nav}{\headcommand {\slideentry {0}{0}{34}{36/36}{}{0}}}
\@writefile{nav}{\headcommand {\beamer@framepages {36}{36}}}
\pgfsyspdfmark {pgfid39}{0}{0}
\@writefile{nav}{\headcommand {\slideentry {0}{0}{35}{37/37}{}{0}}}
\@writefile{nav}{\headcommand {\beamer@framepages {37}{37}}}
\pgfsyspdfmark {pgfid40}{0}{0}
\@writefile{nav}{\headcommand {\slideentry {0}{0}{36}{38/38}{}{0}}}
\@writefile{nav}{\headcommand {\beamer@framepages {38}{38}}}
\pgfsyspdfmark {pgfid41}{0}{0}
\@writefile{nav}{\headcommand {\slideentry {0}{0}{37}{39/39}{}{0}}}
\@writefile{nav}{\headcommand {\beamer@framepages {39}{39}}}
\pgfsyspdfmark {pgfid42}{0}{0}
\@writefile{nav}{\headcommand {\slideentry {0}{0}{38}{40/40}{}{0}}}
\@writefile{nav}{\headcommand {\beamer@framepages {40}{40}}}
\pgfsyspdfmark {pgfid43}{0}{0}
\@writefile{nav}{\headcommand {\slideentry {0}{0}{39}{41/41}{}{0}}}
\@writefile{nav}{\headcommand {\beamer@framepages {41}{41}}}
\pgfsyspdfmark {pgfid44}{0}{0}
\@writefile{nav}{\headcommand {\slideentry {0}{0}{40}{42/42}{}{0}}}
\@writefile{nav}{\headcommand {\beamer@framepages {42}{42}}}
\pgfsyspdfmark {pgfid45}{0}{0}
\@writefile{nav}{\headcommand {\beamer@partpages {1}{42}}}
\@writefile{nav}{\headcommand {\beamer@subsectionpages {1}{42}}}
\@writefile{nav}{\headcommand {\beamer@sectionpages {1}{42}}}
\@writefile{nav}{\headcommand {\beamer@documentpages {42}}}
\@writefile{nav}{\headcommand {\gdef \inserttotalframenumber {40}}}
\pgfsyspdfmark {pgfid46}{1864679}{15403901}
\pgfsyspdfmark {pgfid47}{2634716}{15403901}
\pgfsyspdfmark {pgfid48}{2891395}{15403901}
\@writefile{nav}{\headcommand {\slideentry {0}{0}{41}{43/43}{}{0}}}
\@writefile{nav}{\headcommand {\beamer@framepages {43}{43}}}
